{
  "Comment.nvim": { "branch": "master", "commit": "38d3b7eb553872d8866f14a0dd4fe84126068fce" },
  "LuaSnip": { "branch": "master", "commit": "e77fa9ad0b1f4fc6cddf54e51047e17e90c7d7ed" },
  "alpha-nvim": { "branch": "main", "commit": "87c204040e3f5d4c1c95067b35905d8f8a2f2545" },
  "bigfile.nvim": { "branch": "main", "commit": "c1bad34ce742b4f360b67ca23c873fef998240fc" },
  "bufferline.nvim": { "branch": "main", "commit": "a4bd44523316928a7c4a5c09a3407d02c30b6027" },
  "catppuccin": { "branch": "main", "commit": "bfe91dfb3a19ffd4445e43611fcde68acbb3fed4" },
  "cmp-buffer": { "branch": "main", "commit": "3022dbc9166796b644a841a02de8dd1cc1d311fa" },
  "cmp-nvim-lsp": { "branch": "main", "commit": "0e6b2ed705ddcff9738ec4ea838141654f12eeef" },
  "cmp-path": { "branch": "main", "commit": "91ff86cd9c29299a64f968ebb45846c485725f23" },
  "cmp_luasnip": { "branch": "master", "commit": "18095520391186d634a0045dacaa346291096566" },
  "friendly-snippets": { "branch": "main", "commit": "631f79e346b0b3203d2ce3eae619ca8d612e5463" },
  "gitsigns.nvim": { "branch": "main", "commit": "e5edefd9976039f5352e0c900f35206770b33a2d" },
  "indent-blankline.nvim": { "branch": "master", "commit": "018bd04d80c9a73d399c1061fa0c3b14a7614399" },
  "lazy.nvim": { "branch": "main", "commit": "d6a782c7002682f4a01b79fc3918c4584ad6e8fb" },
  "lir.nvim": { "branch": "master", "commit": "1aa871f20637eccc4e1e26b0fbcf9aafc9b6caf7" },
  "lualine.nvim": { "branch": "master", "commit": "84ffb80e452d95e2c46fa29a98ea11a240f7843e" },
  "lunar.nvim": { "branch": "master", "commit": "08bbc93b96ad698d22fc2aa01805786bcedc34b9" },
  "mason-lspconfig.nvim": { "branch": "main", "commit": "7276ffffcf51a8304b5fd4b81293be4ee010ec47" },
  "mason.nvim": { "branch": "main", "commit": "057ac5ca159c83e302a55bd839a96ff1ea2396db" },
  "neodev.nvim": { "branch": "main", "commit": "0043cf91c18aeac8db5765eb86c6078e17ac9325" },
  "nlsp-settings.nvim": { "branch": "main", "commit": "32aa12da328258f2dccb15d327c26a8d21d9f4bd" },
  "null-ls.nvim": { "branch": "main", "commit": "33b853a3933eed3137cd055aac4e539e69832ad0" },
  "nvim-autopairs": { "branch": "master", "commit": "7566a86f44bb72ba2b1a609f528a27d93241502d" },
  "nvim-cmp": { "branch": "main", "commit": "11102d3db12c7f8b35265ad0e17a21511e5b1e68" },
  "nvim-dap": { "branch": "master", "commit": "6cedcb527e264c8f25e86afa8dae74c6692dee51" },
  "nvim-dap-ui": { "branch": "master", "commit": "286f682f366fbc652b38dff893569374e9433dd3" },
  "nvim-lspconfig": { "branch": "master", "commit": "427378a03ffc1e1bc023275583a49b1993e524d0" },
  "nvim-navic": { "branch": "master", "commit": "83dc174da915f9dbc9b51169e9b62a2e0d42b527" },
  "nvim-tree.lua": { "branch": "master", "commit": "bb375fb20327c49920c41d2b51c1ce2f4fe7deb3" },
  "nvim-treesitter": { "branch": "master", "commit": "2ce3c9080cfe4a39c7907e672edafd2a95244a7c" },
  "nvim-ts-context-commentstring": { "branch": "main", "commit": "0bf8fbc2ca8f8cdb6efbd0a9e32740d7a991e4c3" },
  "nvim-web-devicons": { "branch": "master", "commit": "986875b7364095d6535e28bd4aac3a9357e91bbe" },
  "onedarker.nvim": { "branch": "freeze", "commit": "b00dd2189f264c5aeb4cf04c59439655ecd573ec" },
  "plenary.nvim": { "branch": "master", "commit": "9ac3e9541bbabd9d73663d757e4fe48a675bb054" },
  "project.nvim": { "branch": "main", "commit": "8c6bad7d22eef1b71144b401c9f74ed01526a4fb" },
  "schemastore.nvim": { "branch": "main", "commit": "0b396f538f195c249f021a48c3d8988f0d3f86f7" },
  "structlog.nvim": { "branch": "main", "commit": "45b26a2b1036bb93c0e83f4225e85ab3cee8f476" },
  "telescope-fzf-native.nvim": { "branch": "main", "commit": "580b6c48651cabb63455e97d7e131ed557b8c7e2" },
  "telescope.nvim": { "branch": "0.1.x", "commit": "9de317bdea2bc393074651179c4fc7f93e9b2d56" },
  "toggleterm.nvim": { "branch": "main", "commit": "68fdf851c2b7901a7065ff129b77d3483419ddce" },
  "tokyonight.nvim": { "branch": "main", "commit": "c5df636ce62a8aab7565f35da143cfd672526302" },
  "vim-illuminate": { "branch": "master", "commit": "a2907275a6899c570d16e95b9db5fd921c167502" },
  "which-key.nvim": { "branch": "main", "commit": "4acffc92953a90a790603bfdab7c92319ab167b1" }
}